…
## discard the dry-weight energy density values
edx <- edx %>% filter(measurement_units!="kJ/gDW")

## some data manipulation
edx <- edx %>%
  ## remove the spaces from the measurement names, for convenience
  mutate(measurement_name=gsub("[[:space:]]+", "_", measurement_name)) %>%
  ## convert to wide format
  dplyr::select(source_id, taxon_sample_id, measurement_name, measurement_mean_value) %>%
  tidyr::spread(measurement_name, measurement_mean_value)

## what does this look like?
edx
#> # A tibble: 197 x 8
#>    source_id taxon_sample_id dry_weight energy_content standard_length
#>        <int>           <int>      <dbl>          <dbl>           <dbl>
#>  1        64              37    1.20              8.64            70.0
#>  2        64              38    0.00670           5.34            15.0
#>  3        64              39    0.00675           4.51            16.0
#>  4        64              40    0.600             6.79            58.0
#>  5        64              41    0.307             7.84            47.0
#>  6        64              42    0.498             8.35            56.0
#>  7        64              43    1.52              8.73            77.0
#>  8        64              44    2.87              9.38            90.0
#>  9        64              47    0.0890            3.76            37.0
#> 10        64              48    0.396             7.12            53.0
#> # ... with 187 more rows, and 3 more variables: total_length <dbl>,
#> #   water_content <dbl>, wet_weight <dbl>
```
…
